…
    ## # A tibble: 2 × 7
    ##      Df AIC   BIC   Chisq `Chisq diff` `Df diff` `Pr(>Chisq)`
    ##   <int> <lgl> <lgl> <dbl>        <dbl>     <int>        <dbl>
    ## 1   120 NA    NA     163.         NA          NA     NA      
    ## 2   156 NA    NA     357.         64.0        36      0.00278

The $\Delta \chi^2$ test was significant, so we rejected scalar
invariance. The next step is to identify which item was not invariant.
We will use modification indices.

``` r
modindices(m3, sort. = TRUE, free.remove = FALSE, alpha = 0.05 / 7)
```

    ## # A tibble: 405 × 11
    ##    lhs   op    rhs    block group level    mi     epc sepc.lv sepc.all sepc.nox
    ##    <chr> <chr> <chr>  <int> <int> <int> <dbl>   <dbl>   <dbl>    <dbl>    <dbl>
    ##  1 alc3  ~1    ""         1     1     1  74.3 -0.232  -0.232    -0.175   -0.175
    ##  2 alc3  ~*~   "alc3"     1     1     1  74.3  0.138   0.138     1        1    
    ##  3 alc5  ~~    "alc5"     1     1     1  54.4  0.685   1         0.271    0.271
    ##  4 alc5  ~1    ""         1     1     1  49.9  0.380   0.380     0.198    0.198
    ##  5 alc5  ~*~   "alc5"     1     1     1  49.9 -0.0623 -0.0623   -1       -1    
    ##  6 alc3  ~~    "alc3"     1     1     1  37.0 -0.413  -1        -0.571   -0.571
    ##  7 alc3  ~*~   "alc3"     2     2     1  33.4 -0.159  -0.159    -1       -1    
    ##  8 alc3  ~1    ""         2     2     1  33.4  0.233   0.233     0.178    0.178
    ##  9 alc4  ~1    ""         1     1     1  26.3  0.196   0.196     0.151    0.151
    ## 10 alc4  ~*~   "alc4"     1     1     1  26.3 -0.0651 -0.0651   -1       -1    
    ## # … with 395 more rows
…
    ## # A tibble: 2 × 7
    ##      Df AIC   BIC   Chisq `Chisq diff` `Df diff` `Pr(>Chisq)`
    ##   <int> <lgl> <lgl> <dbl>        <dbl>     <int>        <dbl>
    ## 1   120 NA    NA     163.         NA          NA      NA     
    ## 2   155 NA    NA     283.         50.4        35       0.0440

``` r
modindices(m3p1, sort. = TRUE, free.remove = FALSE, alpha = 0.01 / 7)
```

    ## # A tibble: 403 × 11
    ##    lhs   op    rhs    block group level    mi     epc sepc.lv sepc.all sepc.nox
    ##    <chr> <chr> <chr>  <int> <int> <int> <dbl>   <dbl>   <dbl>    <dbl>    <dbl>
    ##  1 alc5  ~*~   "alc5"     1     1     1  32.0 -0.0519 -0.0519   -1       -1    
    ##  2 alc5  ~1    ""         1     1     1  32.0  0.311   0.311     0.163    0.163
    ##  3 alc5  ~~    "alc5"     1     1     1  31.6  0.540   1         0.274    0.274
    ##  4 alc7  ~~    "alc7"     1     1     1  26.9 -0.374  -1        -0.391   -0.391
    ##  5 alc7  ~*~   "alc7"     1     1     1  21.1  0.0490  0.0490    1        1    
    ##  6 alc7  ~1    ""         1     1     1  21.1 -0.246  -0.246    -0.154   -0.154
    ##  7 alc5  ~*~   "alc5"     7     7     1  18.6  0.0613  0.0613    1        1    
    ##  8 alc5  ~1    ""         7     7     1  18.6 -0.310  -0.310    -0.171   -0.171
    ##  9 alc4  ~*~   "alc4"     1     1     1  16.6 -0.0528 -0.0528   -1       -1    
    ## 10 alc4  ~1    ""         1     1     1  16.6  0.157   0.157     0.122    0.122
    ## # … with 393 more rows
…
